{"@t":"2019-10-16T02:47:11.0908708Z","@mt":"{LogPrefix} Terminating {Immediate}","LogPrefix":"[ServerRegistration] ","Immediate":"True","SourceContext":"Umbraco.Web.Scheduling.BackgroundTaskRunner","ProcessId":7352,"ProcessName":"w3wp","ThreadId":94,"AppDomainId":69,"AppDomainAppId":"LMW3SVC2ROOT","MachineName":"LUUKPC","Log4NetLevel":"INFO "}
{"@t":"2019-10-16T02:47:11.0928653Z","@mt":"{LogPrefix} Canceling tasks","LogPrefix":"[ServerRegistration] ","SourceContext":"Umbraco.Web.Scheduling.BackgroundTaskRunner","ProcessId":7352,"ProcessName":"w3wp","ThreadId":94,"AppDomainId":69,"AppDomainAppId":"LMW3SVC2ROOT","MachineName":"LUUKPC","Log4NetLevel":"INFO "}
{"@t":"2019-10-16T02:47:11.1995800Z","@mt":"{LogPrefix} Tasks {TaskStatus}, terminated","LogPrefix":"[ServerRegistration] ","TaskStatus":"cancelled","SourceContext":"Umbraco.Web.Scheduling.BackgroundTaskRunner","ProcessId":7352,"ProcessName":"w3wp","ThreadId":94,"AppDomainId":69,"AppDomainAppId":"LMW3SVC2ROOT","MachineName":"LUUKPC","Log4NetLevel":"INFO "}
{"@t":"2019-10-16T02:47:11.1995800Z","@mt":"{LogPrefix} Terminating {Immediate}","LogPrefix":"[ScheduledTasks] ","Immediate":"True","SourceContext":"Umbraco.Web.Scheduling.BackgroundTaskRunner","ProcessId":7352,"ProcessName":"w3wp","ThreadId":94,"AppDomainId":69,"AppDomainAppId":"LMW3SVC2ROOT","MachineName":"LUUKPC","Log4NetLevel":"INFO "}
{"@t":"2019-10-16T02:47:11.1995800Z","@mt":"{LogPrefix} Canceling tasks","LogPrefix":"[ScheduledTasks] ","SourceContext":"Umbraco.Web.Scheduling.BackgroundTaskRunner","ProcessId":7352,"ProcessName":"w3wp","ThreadId":94,"AppDomainId":69,"AppDomainAppId":"LMW3SVC2ROOT","MachineName":"LUUKPC","Log4NetLevel":"INFO "}
{"@t":"2019-10-16T02:47:11.1995800Z","@mt":"{LogPrefix} Tasks {TaskStatus}, terminated","LogPrefix":"[ScheduledTasks] ","TaskStatus":"cancelled","SourceContext":"Umbraco.Web.Scheduling.BackgroundTaskRunner","ProcessId":7352,"ProcessName":"w3wp","ThreadId":94,"AppDomainId":69,"AppDomainAppId":"LMW3SVC2ROOT","MachineName":"LUUKPC","Log4NetLevel":"INFO "}
{"@t":"2019-10-16T02:47:11.1995800Z","@mt":"{LogPrefix} Terminating {Immediate}","LogPrefix":"[ScheduledPublishing] ","Immediate":"True","SourceContext":"Umbraco.Web.Scheduling.BackgroundTaskRunner","ProcessId":7352,"ProcessName":"w3wp","ThreadId":94,"AppDomainId":69,"AppDomainAppId":"LMW3SVC2ROOT","MachineName":"LUUKPC","Log4NetLevel":"INFO "}
{"@t":"2019-10-16T02:47:11.1995800Z","@mt":"{LogPrefix} Canceling tasks","LogPrefix":"[ScheduledPublishing] ","SourceContext":"Umbraco.Web.Scheduling.BackgroundTaskRunner","ProcessId":7352,"ProcessName":"w3wp","ThreadId":94,"AppDomainId":69,"AppDomainAppId":"LMW3SVC2ROOT","MachineName":"LUUKPC","Log4NetLevel":"INFO "}
